<?xml version="1.0" encoding="UTF-8" standalone="no"?>
<!-- Created with Inkscape (http://www.inkscape.org/) -->

<svg
   xmlns:osb="http://www.openswatchbook.org/uri/2009/osb"
   xmlns:dc="http://purl.org/dc/elements/1.1/"
   xmlns:cc="http://creativecommons.org/ns#"
   xmlns:rdf="http://www.w3.org/1999/02/22-rdf-syntax-ns#"
   xmlns:svg="http://www.w3.org/2000/svg"
   xmlns="http://www.w3.org/2000/svg"
   xmlns:sodipodi="http://sodipodi.sourceforge.net/DTD/sodipodi-0.dtd"
   xmlns:inkscape="http://www.inkscape.org/namespaces/inkscape"
   width="78.203987"
   height="18.021021"
   id="svg2"
   version="1.1"
   inkscape:version="0.48.2 r9819"
   sodipodi:docname="logo2.svg">
  <defs
     id="defs4">
    <linearGradient
       id="linearGradient3960"
       osb:paint="solid">
      <stop
         style="stop-color:#000000;stop-opacity:1;"
         offset="0"
         id="stop3962" />
    </linearGradient>
    <linearGradient
       id="linearGradient3777">
      <stop
         style="stop-color:#f2ff00;stop-opacity:1;"
         offset="0"
         id="stop3779" />
      <stop
         style="stop-color:#ff0000;stop-opacity:1;"
         offset="1"
         id="stop3781" />
    </linearGradient>
    <linearGradient
       id="linearGradient3761">
      <stop
         style="stop-color:#ff0000;stop-opacity:1;"
         offset="0"
         id="stop3763" />
      <stop
         style="stop-color:#edff00;stop-opacity:1;"
         offset="1"
         id="stop3765" />
    </linearGradient>
  </defs>
  <sodipodi:namedview
     id="base"
     pagecolor="#ffffff"
     bordercolor="#666666"
     borderopacity="1.0"
     inkscape:pageopacity="0.0"
     inkscape:pageshadow="2"
     inkscape:zoom="14.180862"
     inkscape:cx="40.997419"
     inkscape:cy="10.182556"
     inkscape:document-units="px"
     inkscape:current-layer="g3339"
     showgrid="false"
     inkscape:window-width="1216"
     inkscape:window-height="756"
     inkscape:window-x="64"
     inkscape:window-y="0"
     inkscape:window-maximized="0"
     fit-margin-top="0"
     fit-margin-left="0"
     fit-margin-right="0"
     fit-margin-bottom="0" />
  <metadata
     id="metadata7">
    <rdf:RDF>
      <cc:Work
         rdf:about="">
        <dc:format>image/svg+xml</dc:format>
        <dc:type
           rdf:resource="http://purl.org/dc/dcmitype/StillImage" />
        <dc:title />
      </cc:Work>
    </rdf:RDF>
  </metadata>
  <g
     inkscape:label="Capa 1"
     inkscape:groupmode="layer"
     id="layer1"
     transform="translate(-192.73308,-265.46129)">
    <text
       xml:space="preserve"
       style="font-size:10px;font-style:normal;font-variant:normal;font-weight:normal;font-stretch:normal;line-height:125%;letter-spacing:0px;word-spacing:0px;fill:#000000;fill-opacity:1;stroke:none;font-family:Arial;-inkscape-font-specification:Arial"
       x="212.74957"
       y="278.96637"
       id="text2985"
       sodipodi:linespacing="125%"><tspan
         sodipodi:role="line"
         id="tspan2987"
         x="212.74957"
         y="278.96637"
         style="font-size:14px;font-style:normal;font-variant:normal;font-weight:bold;font-stretch:normal;font-family:Skia;-inkscape-font-specification:Skia Bold">GERSolar</tspan></text>
    <g
       id="g3321">
      <path
         transform="matrix(0.90730186,0,0,0.90730186,19.004162,26.080462)"
         d="m 197.43413,273.07455 c 0,0.38472 -0.31188,0.6966 -0.6966,0.6966 -0.38471,0 -0.69659,-0.31188 -0.69659,-0.6966 0,-0.38471 0.31188,-0.69659 0.69659,-0.69659 0.38472,0 0.6966,0.31188 0.6966,0.69659 z"
         sodipodi:ry="0.69659221"
         sodipodi:rx="0.69659221"
         sodipodi:cy="273.07455"
         sodipodi:cx="196.73753"
         id="path3991"
         style="fill:none;stroke:#ff7300;stroke-width:0.33065072;stroke-miterlimit:0;stroke-opacity:1;stroke-dasharray:none;stroke-dashoffset:0"
         sodipodi:type="arc" />
      <path
         sodipodi:type="arc"
         style="fill:none;stroke:#ff0031;stroke-width:0.2;stroke-miterlimit:0;stroke-opacity:1;stroke-dasharray:none;stroke-dashoffset:0"
         id="path3993"
         sodipodi:cx="196.73753"
         sodipodi:cy="273.07455"
         sodipodi:rx="0.69659221"
         sodipodi:ry="0.69659221"
         d="m 197.43413,273.07455 c 0,0.38472 -0.31188,0.6966 -0.6966,0.6966 -0.38471,0 -0.69659,-0.31188 -0.69659,-0.6966 0,-0.38471 0.31188,-0.69659 0.69659,-0.69659 0.38472,0 0.6966,0.31188 0.6966,0.69659 z"
         transform="translate(0.89561852,-1.0946449)" />
      <path
         transform="matrix(0.90730186,0,0,0.90730186,20.596373,26.876567)"
         d="m 197.43413,273.07455 c 0,0.38472 -0.31188,0.6966 -0.6966,0.6966 -0.38471,0 -0.69659,-0.31188 -0.69659,-0.6966 0,-0.38471 0.31188,-0.69659 0.69659,-0.69659 0.38472,0 0.6966,0.31188 0.6966,0.69659 z"
         sodipodi:ry="0.69659221"
         sodipodi:rx="0.69659221"
         sodipodi:cy="273.07455"
         sodipodi:cx="196.73753"
         id="path3995"
         style="fill:none;stroke:#ff0000;stroke-width:0.33065072;stroke-miterlimit:0;stroke-opacity:1;stroke-dasharray:none;stroke-dashoffset:0"
         sodipodi:type="arc" />
      <path
         sodipodi:type="arc"
         style="fill:none;stroke:#ff5f00;stroke-width:0.30000001;stroke-miterlimit:0;stroke-opacity:1;stroke-dasharray:none;stroke-dashoffset:0"
         id="path3997"
         sodipodi:cx="196.73753"
         sodipodi:cy="273.07455"
         sodipodi:rx="0.69659221"
         sodipodi:ry="0.69659221"
         d="m 197.43413,273.07455 c 0,0.38472 -0.31188,0.6966 -0.6966,0.6966 -0.38471,0 -0.69659,-0.31188 -0.69659,-0.6966 0,-0.38471 0.31188,-0.69659 0.69659,-0.69659 0.38472,0 0.6966,0.31188 0.6966,0.69659 z"
         transform="translate(4.1795531,1.0946448)" />
      <path
         transform="translate(2.8155155,-0.4975659)"
         d="m 197.43413,273.07455 c 0,0.38472 -0.31188,0.6966 -0.6966,0.6966 -0.38471,0 -0.69659,-0.31188 -0.69659,-0.6966 0,-0.38471 0.31188,-0.69659 0.69659,-0.69659 0.38472,0 0.6966,0.31188 0.6966,0.69659 z"
         sodipodi:ry="0.69659221"
         sodipodi:rx="0.69659221"
         sodipodi:cy="273.07455"
         sodipodi:cx="196.73753"
         id="path3999"
         style="fill:none;stroke:#ffbf00;stroke-width:0.2;stroke-miterlimit:0;stroke-opacity:1;stroke-dasharray:none;stroke-dashoffset:0"
         sodipodi:type="arc" />
      <path
         sodipodi:type="arc"
         style="fill:none;stroke:#ff8a00;stroke-width:0.17904499;stroke-miterlimit:0;stroke-opacity:1;stroke-dasharray:none;stroke-dashoffset:0"
         id="path4001"
         sodipodi:cx="196.73753"
         sodipodi:cy="273.07455"
         sodipodi:rx="0.69659221"
         sodipodi:ry="0.69659221"
         d="m 197.43413,273.07455 c 0,0.38472 -0.31188,0.6966 -0.6966,0.6966 -0.38471,0 -0.69659,-0.31188 -0.69659,-0.6966 0,-0.38471 0.31188,-0.69659 0.69659,-0.69659 0.38472,0 0.6966,0.31188 0.6966,0.69659 z"
         transform="matrix(0.83777825,0,0,0.83777825,34.191318,41.611258)" />
      <path
         transform="matrix(0.83777825,0,0,0.83777825,35.880112,42.103822)"
         d="m 197.43413,273.07455 c 0,0.38472 -0.31188,0.6966 -0.6966,0.6966 -0.38471,0 -0.69659,-0.31188 -0.69659,-0.6966 0,-0.38471 0.31188,-0.69659 0.69659,-0.69659 0.38472,0 0.6966,0.31188 0.6966,0.69659 z"
         sodipodi:ry="0.69659221"
         sodipodi:rx="0.69659221"
         sodipodi:cy="273.07455"
         sodipodi:cx="196.73753"
         id="path4003"
         style="fill:none;stroke:#ff6300;stroke-width:0.17904499;stroke-miterlimit:0;stroke-opacity:1;stroke-dasharray:none;stroke-dashoffset:0"
         sodipodi:type="arc" />
      <path
         sodipodi:type="arc"
         style="fill:none;stroke:#ff5900;stroke-width:0.2849521;stroke-miterlimit:0;stroke-opacity:1;stroke-dasharray:none;stroke-dashoffset:0"
         id="path4005"
         sodipodi:cx="196.73753"
         sodipodi:cy="273.07455"
         sodipodi:rx="0.69659221"
         sodipodi:ry="0.69659221"
         d="m 197.43413,273.07455 c 0,0.38472 -0.31188,0.6966 -0.6966,0.6966 -0.38471,0 -0.69659,-0.31188 -0.69659,-0.6966 0,-0.38471 0.31188,-0.69659 0.69659,-0.69659 0.38472,0 0.6966,0.31188 0.6966,0.69659 z"
         transform="matrix(0.83777825,0,0,0.83777825,36.583776,43.546334)" />
      <path
         transform="matrix(1.0068728,0,0,1.0068728,2.0561023,-6.0356937)"
         d="m 197.43413,273.07455 c 0,0.38472 -0.31188,0.6966 -0.6966,0.6966 -0.38471,0 -0.69659,-0.31188 -0.69659,-0.6966 0,-0.38471 0.31188,-0.69659 0.69659,-0.69659 0.38472,0 0.6966,0.31188 0.6966,0.69659 z"
         sodipodi:ry="0.69659221"
         sodipodi:rx="0.69659221"
         sodipodi:cy="273.07455"
         sodipodi:cx="196.73753"
         id="path4007"
         style="fill:none;stroke:#ff8c00;stroke-width:0.14920416;stroke-miterlimit:0;stroke-opacity:1;stroke-dasharray:none;stroke-dashoffset:0"
         sodipodi:type="arc" />
      <path
         transform="matrix(0.83777825,0,0,0.83777825,38.469239,39.680427)"
         d="m 197.43413,273.07455 c 0,0.38472 -0.31188,0.6966 -0.6966,0.6966 -0.38471,0 -0.69659,-0.31188 -0.69659,-0.6966 0,-0.38471 0.31188,-0.69659 0.69659,-0.69659 0.38472,0 0.6966,0.31188 0.6966,0.69659 z"
         sodipodi:ry="0.69659221"
         sodipodi:rx="0.69659221"
         sodipodi:cy="273.07455"
         sodipodi:cx="196.73753"
         id="path4011"
         style="fill:none;stroke:#ff8000;stroke-width:0.1;stroke-miterlimit:0;stroke-opacity:1;stroke-dasharray:none;stroke-dashoffset:0"
         sodipodi:type="arc" />
      <path
         sodipodi:type="arc"
         style="fill:none;stroke:#ff8000;stroke-width:0.1;stroke-miterlimit:0;stroke-opacity:1;stroke-dasharray:none;stroke-dashoffset:0"
         id="path4013"
         sodipodi:cx="196.73753"
         sodipodi:cy="273.07455"
         sodipodi:rx="0.69659221"
         sodipodi:ry="0.69659221"
         d="m 197.43413,273.07455 c 0,0.38472 -0.31188,0.6966 -0.6966,0.6966 -0.38471,0 -0.69659,-0.31188 -0.69659,-0.6966 0,-0.38471 0.31188,-0.69659 0.69659,-0.69659 0.38472,0 0.6966,0.31188 0.6966,0.69659 z"
         transform="matrix(0.8963638,0,0,0.8963638,25.338281,23.140925)" />
      <path
         transform="matrix(0.83777825,0,0,0.83777825,40.712664,37.331453)"
         d="m 197.43413,273.07455 c 0,0.38472 -0.31188,0.6966 -0.6966,0.6966 -0.38471,0 -0.69659,-0.31188 -0.69659,-0.6966 0,-0.38471 0.31188,-0.69659 0.69659,-0.69659 0.38472,0 0.6966,0.31188 0.6966,0.69659 z"
         sodipodi:ry="0.69659221"
         sodipodi:rx="0.69659221"
         sodipodi:cy="273.07455"
         sodipodi:cx="196.73753"
         id="path4015"
         style="fill:none;stroke:#ffbf00;stroke-width:0.1;stroke-miterlimit:0;stroke-opacity:1;stroke-dasharray:none;stroke-dashoffset:0"
         sodipodi:type="arc" />
      <path
         sodipodi:type="arc"
         style="fill:none;stroke:#ffd600;stroke-width:0.1;stroke-miterlimit:0;stroke-opacity:1;stroke-dasharray:none;stroke-dashoffset:0"
         id="path4017"
         sodipodi:cx="196.73753"
         sodipodi:cy="273.07455"
         sodipodi:rx="0.69659221"
         sodipodi:ry="0.69659221"
         d="m 197.43413,273.07455 c 0,0.38472 -0.31188,0.6966 -0.6966,0.6966 -0.38471,0 -0.69659,-0.31188 -0.69659,-0.6966 0,-0.38471 0.31188,-0.69659 0.69659,-0.69659 0.38472,0 0.6966,0.31188 0.6966,0.69659 z"
         transform="matrix(0.6096696,0,0,0.6096696,87.007904,99.750596)" />
      <path
         transform="matrix(0.45557096,0,0,0.45557096,118.28619,142.59387)"
         d="m 197.43413,273.07455 c 0,0.38472 -0.31188,0.6966 -0.6966,0.6966 -0.38471,0 -0.69659,-0.31188 -0.69659,-0.6966 0,-0.38471 0.31188,-0.69659 0.69659,-0.69659 0.38472,0 0.6966,0.31188 0.6966,0.69659 z"
         sodipodi:ry="0.69659221"
         sodipodi:rx="0.69659221"
         sodipodi:cy="273.07455"
         sodipodi:cx="196.73753"
         id="path4019"
         style="fill:none;stroke:#ffde00;stroke-width:0.1;stroke-miterlimit:0;stroke-opacity:1;stroke-dasharray:none;stroke-dashoffset:0"
         sodipodi:type="arc" />
      <path
         sodipodi:type="arc"
         style="fill:none;stroke:#ff6300;stroke-width:0.17904499;stroke-miterlimit:0;stroke-opacity:1;stroke-dasharray:none;stroke-dashoffset:0"
         id="path4085"
         sodipodi:cx="196.73753"
         sodipodi:cy="273.07455"
         sodipodi:rx="0.69659221"
         sodipodi:ry="0.69659221"
         d="m 197.43413,273.07455 c 0,0.38472 -0.31188,0.6966 -0.6966,0.6966 -0.38471,0 -0.69659,-0.31188 -0.69659,-0.6966 0,-0.38471 0.31188,-0.69659 0.69659,-0.69659 0.38472,0 0.6966,0.31188 0.6966,0.69659 z"
         transform="matrix(1.0839353,0,0,1.0839353,-11.369586,-26.329233)" />
      <path
         transform="matrix(1.0168016,0,0,1.0168016,3.7079918,-10.727468)"
         d="m 197.43413,273.07455 c 0,0.38472 -0.31188,0.6966 -0.6966,0.6966 -0.38471,0 -0.69659,-0.31188 -0.69659,-0.6966 0,-0.38471 0.31188,-0.69659 0.69659,-0.69659 0.38472,0 0.6966,0.31188 0.6966,0.69659 z"
         sodipodi:ry="0.69659221"
         sodipodi:rx="0.69659221"
         sodipodi:cy="273.07455"
         sodipodi:cx="196.73753"
         id="path4087"
         style="fill:none;stroke:#ff6300;stroke-width:0.17904499;stroke-miterlimit:0;stroke-opacity:1;stroke-dasharray:none;stroke-dashoffset:0"
         sodipodi:type="arc" />
    </g>
    <g
       id="g3339"
       transform="matrix(-0.5,0.8660254,-0.8660254,-0.5,541.88276,236.54287)">
      <path
         sodipodi:type="arc"
         style="fill:none;stroke:#ff7300;stroke-width:0.33065072;stroke-miterlimit:0;stroke-opacity:1;stroke-dasharray:none;stroke-dashoffset:0"
         id="path3341"
         sodipodi:cx="196.73753"
         sodipodi:cy="273.07455"
         sodipodi:rx="0.69659221"
         sodipodi:ry="0.69659221"
         d="m 197.43413,273.07455 c 0,0.38472 -0.31188,0.6966 -0.6966,0.6966 -0.38471,0 -0.69659,-0.31188 -0.69659,-0.6966 0,-0.38471 0.31188,-0.69659 0.69659,-0.69659 0.38472,0 0.6966,0.31188 0.6966,0.69659 z"
         transform="matrix(0.90730186,0,0,0.90730186,19.004162,26.080462)" />
      <path
         transform="translate(0.89561852,-1.0946449)"
         d="m 197.43413,273.07455 c 0,0.38472 -0.31188,0.6966 -0.6966,0.6966 -0.38471,0 -0.69659,-0.31188 -0.69659,-0.6966 0,-0.38471 0.31188,-0.69659 0.69659,-0.69659 0.38472,0 0.6966,0.31188 0.6966,0.69659 z"
         sodipodi:ry="0.69659221"
         sodipodi:rx="0.69659221"
         sodipodi:cy="273.07455"
         sodipodi:cx="196.73753"
         id="path3343"
         style="fill:none;stroke:#ff0031;stroke-width:0.2;stroke-miterlimit:0;stroke-opacity:1;stroke-dasharray:none;stroke-dashoffset:0"
         sodipodi:type="arc" />
      <path
         sodipodi:type="arc"
         style="fill:none;stroke:#ff0000;stroke-width:0.33065072;stroke-miterlimit:0;stroke-opacity:1;stroke-dasharray:none;stroke-dashoffset:0"
         id="path3345"
         sodipodi:cx="196.73753"
         sodipodi:cy="273.07455"
         sodipodi:rx="0.69659221"
         sodipodi:ry="0.69659221"
         d="m 197.43413,273.07455 c 0,0.38472 -0.31188,0.6966 -0.6966,0.6966 -0.38471,0 -0.69659,-0.31188 -0.69659,-0.6966 0,-0.38471 0.31188,-0.69659 0.69659,-0.69659 0.38472,0 0.6966,0.31188 0.6966,0.69659 z"
         transform="matrix(0.90730186,0,0,0.90730186,20.596373,26.876567)" />
      <path
         transform="translate(4.1795531,1.0946448)"
         d="m 197.43413,273.07455 c 0,0.38472 -0.31188,0.6966 -0.6966,0.6966 -0.38471,0 -0.69659,-0.31188 -0.69659,-0.6966 0,-0.38471 0.31188,-0.69659 0.69659,-0.69659 0.38472,0 0.6966,0.31188 0.6966,0.69659 z"
         sodipodi:ry="0.69659221"
         sodipodi:rx="0.69659221"
         sodipodi:cy="273.07455"
         sodipodi:cx="196.73753"
         id="path3347"
         style="fill:none;stroke:#ff5f00;stroke-width:0.30000001;stroke-miterlimit:0;stroke-opacity:1;stroke-dasharray:none;stroke-dashoffset:0"
         sodipodi:type="arc" />
      <path
         sodipodi:type="arc"
         style="fill:none;stroke:#ffbf00;stroke-width:0.2;stroke-miterlimit:0;stroke-opacity:1;stroke-dasharray:none;stroke-dashoffset:0"
         id="path3349"
         sodipodi:cx="196.73753"
         sodipodi:cy="273.07455"
         sodipodi:rx="0.69659221"
         sodipodi:ry="0.69659221"
         d="m 197.43413,273.07455 c 0,0.38472 -0.31188,0.6966 -0.6966,0.6966 -0.38471,0 -0.69659,-0.31188 -0.69659,-0.6966 0,-0.38471 0.31188,-0.69659 0.69659,-0.69659 0.38472,0 0.6966,0.31188 0.6966,0.69659 z"
         transform="translate(2.8155155,-0.4975659)" />
      <path
         transform="matrix(0.83777825,0,0,0.83777825,34.191318,41.611258)"
         d="m 197.43413,273.07455 c 0,0.38472 -0.31188,0.6966 -0.6966,0.6966 -0.38471,0 -0.69659,-0.31188 -0.69659,-0.6966 0,-0.38471 0.31188,-0.69659 0.69659,-0.69659 0.38472,0 0.6966,0.31188 0.6966,0.69659 z"
         sodipodi:ry="0.69659221"
         sodipodi:rx="0.69659221"
         sodipodi:cy="273.07455"
         sodipodi:cx="196.73753"
         id="path3351"
         style="fill:none;stroke:#ff8a00;stroke-width:0.17904499;stroke-miterlimit:0;stroke-opacity:1;stroke-dasharray:none;stroke-dashoffset:0"
         sodipodi:type="arc" />
      <path
         sodipodi:type="arc"
         style="fill:none;stroke:#ff6300;stroke-width:0.17904499;stroke-miterlimit:0;stroke-opacity:1;stroke-dasharray:none;stroke-dashoffset:0"
         id="path3353"
         sodipodi:cx="196.73753"
         sodipodi:cy="273.07455"
         sodipodi:rx="0.69659221"
         sodipodi:ry="0.69659221"
         d="m 197.43413,273.07455 c 0,0.38472 -0.31188,0.6966 -0.6966,0.6966 -0.38471,0 -0.69659,-0.31188 -0.69659,-0.6966 0,-0.38471 0.31188,-0.69659 0.69659,-0.69659 0.38472,0 0.6966,0.31188 0.6966,0.69659 z"
         transform="matrix(0.83777825,0,0,0.83777825,35.880112,42.103822)" />
      <path
         transform="matrix(0.83777825,0,0,0.83777825,36.583776,43.546334)"
         d="m 197.43413,273.07455 c 0,0.38472 -0.31188,0.6966 -0.6966,0.6966 -0.38471,0 -0.69659,-0.31188 -0.69659,-0.6966 0,-0.38471 0.31188,-0.69659 0.69659,-0.69659 0.38472,0 0.6966,0.31188 0.6966,0.69659 z"
         sodipodi:ry="0.69659221"
         sodipodi:rx="0.69659221"
         sodipodi:cy="273.07455"
         sodipodi:cx="196.73753"
         id="path3355"
         style="fill:none;stroke:#ff5900;stroke-width:0.2849521;stroke-miterlimit:0;stroke-opacity:1;stroke-dasharray:none;stroke-dashoffset:0"
         sodipodi:type="arc" />
      <path
         sodipodi:type="arc"
         style="fill:none;stroke:#ff8c00;stroke-width:0.14920416;stroke-miterlimit:0;stroke-opacity:1;stroke-dasharray:none;stroke-dashoffset:0"
         id="path3357"
         sodipodi:cx="196.73753"
         sodipodi:cy="273.07455"
         sodipodi:rx="0.69659221"
         sodipodi:ry="0.69659221"
         d="m 197.43413,273.07455 c 0,0.38472 -0.31188,0.6966 -0.6966,0.6966 -0.38471,0 -0.69659,-0.31188 -0.69659,-0.6966 0,-0.38471 0.31188,-0.69659 0.69659,-0.69659 0.38472,0 0.6966,0.31188 0.6966,0.69659 z"
         transform="matrix(1.0068728,0,0,1.0068728,2.0561023,-6.0356937)" />
      <path
         sodipodi:type="arc"
         style="fill:none;stroke:#ff8000;stroke-width:0.1;stroke-miterlimit:0;stroke-opacity:1;stroke-dasharray:none;stroke-dashoffset:0"
         id="path3359"
         sodipodi:cx="196.73753"
         sodipodi:cy="273.07455"
         sodipodi:rx="0.69659221"
         sodipodi:ry="0.69659221"
         d="m 197.43413,273.07455 c 0,0.38472 -0.31188,0.6966 -0.6966,0.6966 -0.38471,0 -0.69659,-0.31188 -0.69659,-0.6966 0,-0.38471 0.31188,-0.69659 0.69659,-0.69659 0.38472,0 0.6966,0.31188 0.6966,0.69659 z"
         transform="matrix(0.83777825,0,0,0.83777825,38.469239,39.680427)" />
      <path
         transform="matrix(0.8963638,0,0,0.8963638,25.338281,23.140925)"
         d="m 197.43413,273.07455 c 0,0.38472 -0.31188,0.6966 -0.6966,0.6966 -0.38471,0 -0.69659,-0.31188 -0.69659,-0.6966 0,-0.38471 0.31188,-0.69659 0.69659,-0.69659 0.38472,0 0.6966,0.31188 0.6966,0.69659 z"
         sodipodi:ry="0.69659221"
         sodipodi:rx="0.69659221"
         sodipodi:cy="273.07455"
         sodipodi:cx="196.73753"
         id="path3361"
         style="fill:none;stroke:#ff8000;stroke-width:0.1;stroke-miterlimit:0;stroke-opacity:1;stroke-dasharray:none;stroke-dashoffset:0"
         sodipodi:type="arc" />
      <path
         sodipodi:type="arc"
         style="fill:none;stroke:#ffbf00;stroke-width:0.1;stroke-miterlimit:0;stroke-opacity:1;stroke-dasharray:none;stroke-dashoffset:0"
         id="path3363"
         sodipodi:cx="196.73753"
         sodipodi:cy="273.07455"
         sodipodi:rx="0.69659221"
         sodipodi:ry="0.69659221"
         d="m 197.43413,273.07455 c 0,0.38472 -0.31188,0.6966 -0.6966,0.6966 -0.38471,0 -0.69659,-0.31188 -0.69659,-0.6966 0,-0.38471 0.31188,-0.69659 0.69659,-0.69659 0.38472,0 0.6966,0.31188 0.6966,0.69659 z"
         transform="matrix(0.83777825,0,0,0.83777825,40.712664,37.331453)" />
      <path
         transform="matrix(0.6096696,0,0,0.6096696,87.007904,99.750596)"
         d="m 197.43413,273.07455 c 0,0.38472 -0.31188,0.6966 -0.6966,0.6966 -0.38471,0 -0.69659,-0.31188 -0.69659,-0.6966 0,-0.38471 0.31188,-0.69659 0.69659,-0.69659 0.38472,0 0.6966,0.31188 0.6966,0.69659 z"
         sodipodi:ry="0.69659221"
         sodipodi:rx="0.69659221"
         sodipodi:cy="273.07455"
         sodipodi:cx="196.73753"
         id="path3365"
         style="fill:none;stroke:#ffd600;stroke-width:0.1;stroke-miterlimit:0;stroke-opacity:1;stroke-dasharray:none;stroke-dashoffset:0"
         sodipodi:type="arc" />
      <path
         sodipodi:type="arc"
         style="fill:none;stroke:#ffde00;stroke-width:0.1;stroke-miterlimit:0;stroke-opacity:1;stroke-dasharray:none;stroke-dashoffset:0"
         id="path3367"
         sodipodi:cx="196.73753"
         sodipodi:cy="273.07455"
         sodipodi:rx="0.69659221"
         sodipodi:ry="0.69659221"
         d="m 197.43413,273.07455 c 0,0.38472 -0.31188,0.6966 -0.6966,0.6966 -0.38471,0 -0.69659,-0.31188 -0.69659,-0.6966 0,-0.38471 0.31188,-0.69659 0.69659,-0.69659 0.38472,0 0.6966,0.31188 0.6966,0.69659 z"
         transform="matrix(0.45557096,0,0,0.45557096,118.28619,142.59387)" />
      <path
         transform="matrix(1.0839353,0,0,1.0839353,-11.369586,-26.329233)"
         d="m 197.43413,273.07455 c 0,0.38472 -0.31188,0.6966 -0.6966,0.6966 -0.38471,0 -0.69659,-0.31188 -0.69659,-0.6966 0,-0.38471 0.31188,-0.69659 0.69659,-0.69659 0.38472,0 0.6966,0.31188 0.6966,0.69659 z"
         sodipodi:ry="0.69659221"
         sodipodi:rx="0.69659221"
         sodipodi:cy="273.07455"
         sodipodi:cx="196.73753"
         id="path3369"
         style="fill:none;stroke:#ff6300;stroke-width:0.17904499;stroke-miterlimit:0;stroke-opacity:1;stroke-dasharray:none;stroke-dashoffset:0"
         sodipodi:type="arc" />
      <path
         sodipodi:type="arc"
         style="fill:none;stroke:#ff6300;stroke-width:0.17904499;stroke-miterlimit:0;stroke-opacity:1;stroke-dasharray:none;stroke-dashoffset:0"
         id="path3371"
         sodipodi:cx="196.73753"
         sodipodi:cy="273.07455"
         sodipodi:rx="0.69659221"
         sodipodi:ry="0.69659221"
         d="m 197.43413,273.07455 c 0,0.38472 -0.31188,0.6966 -0.6966,0.6966 -0.38471,0 -0.69659,-0.31188 -0.69659,-0.6966 0,-0.38471 0.31188,-0.69659 0.69659,-0.69659 0.38472,0 0.6966,0.31188 0.6966,0.69659 z"
         transform="matrix(1.0168016,0,0,1.0168016,3.7079918,-10.727468)" />
    </g>
    <g
       id="g3407"
       transform="matrix(-0.5,-0.8660254,0.8660254,-0.5,66.129736,587.56655)">
      <path
         sodipodi:type="arc"
         style="fill:none;stroke:#ff7300;stroke-width:0.33065072;stroke-miterlimit:0;stroke-opacity:1;stroke-dasharray:none;stroke-dashoffset:0"
         id="path3409"
         sodipodi:cx="196.73753"
         sodipodi:cy="273.07455"
         sodipodi:rx="0.69659221"
         sodipodi:ry="0.69659221"
         d="m 197.43413,273.07455 c 0,0.38472 -0.31188,0.6966 -0.6966,0.6966 -0.38471,0 -0.69659,-0.31188 -0.69659,-0.6966 0,-0.38471 0.31188,-0.69659 0.69659,-0.69659 0.38472,0 0.6966,0.31188 0.6966,0.69659 z"
         transform="matrix(0.90730186,0,0,0.90730186,19.004162,26.080462)" />
      <path
         transform="translate(0.89561852,-1.0946449)"
         d="m 197.43413,273.07455 c 0,0.38472 -0.31188,0.6966 -0.6966,0.6966 -0.38471,0 -0.69659,-0.31188 -0.69659,-0.6966 0,-0.38471 0.31188,-0.69659 0.69659,-0.69659 0.38472,0 0.6966,0.31188 0.6966,0.69659 z"
         sodipodi:ry="0.69659221"
         sodipodi:rx="0.69659221"
         sodipodi:cy="273.07455"
         sodipodi:cx="196.73753"
         id="path3411"
         style="fill:none;stroke:#ff0031;stroke-width:0.2;stroke-miterlimit:0;stroke-opacity:1;stroke-dasharray:none;stroke-dashoffset:0"
         sodipodi:type="arc" />
      <path
         sodipodi:type="arc"
         style="fill:none;stroke:#ff0000;stroke-width:0.33065072;stroke-miterlimit:0;stroke-opacity:1;stroke-dasharray:none;stroke-dashoffset:0"
         id="path3413"
         sodipodi:cx="196.73753"
         sodipodi:cy="273.07455"
         sodipodi:rx="0.69659221"
         sodipodi:ry="0.69659221"
         d="m 197.43413,273.07455 c 0,0.38472 -0.31188,0.6966 -0.6966,0.6966 -0.38471,0 -0.69659,-0.31188 -0.69659,-0.6966 0,-0.38471 0.31188,-0.69659 0.69659,-0.69659 0.38472,0 0.6966,0.31188 0.6966,0.69659 z"
         transform="matrix(0.90730186,0,0,0.90730186,20.596373,26.876567)" />
      <path
         transform="translate(4.1795531,1.0946448)"
         d="m 197.43413,273.07455 c 0,0.38472 -0.31188,0.6966 -0.6966,0.6966 -0.38471,0 -0.69659,-0.31188 -0.69659,-0.6966 0,-0.38471 0.31188,-0.69659 0.69659,-0.69659 0.38472,0 0.6966,0.31188 0.6966,0.69659 z"
         sodipodi:ry="0.69659221"
         sodipodi:rx="0.69659221"
         sodipodi:cy="273.07455"
         sodipodi:cx="196.73753"
         id="path3415"
         style="fill:none;stroke:#ff5f00;stroke-width:0.30000001;stroke-miterlimit:0;stroke-opacity:1;stroke-dasharray:none;stroke-dashoffset:0"
         sodipodi:type="arc" />
      <path
         sodipodi:type="arc"
         style="fill:none;stroke:#ffbf00;stroke-width:0.2;stroke-miterlimit:0;stroke-opacity:1;stroke-dasharray:none;stroke-dashoffset:0"
         id="path3417"
         sodipodi:cx="196.73753"
         sodipodi:cy="273.07455"
         sodipodi:rx="0.69659221"
         sodipodi:ry="0.69659221"
         d="m 197.43413,273.07455 c 0,0.38472 -0.31188,0.6966 -0.6966,0.6966 -0.38471,0 -0.69659,-0.31188 -0.69659,-0.6966 0,-0.38471 0.31188,-0.69659 0.69659,-0.69659 0.38472,0 0.6966,0.31188 0.6966,0.69659 z"
         transform="translate(2.8155155,-0.4975659)" />
      <path
         transform="matrix(0.83777825,0,0,0.83777825,34.191318,41.611258)"
         d="m 197.43413,273.07455 c 0,0.38472 -0.31188,0.6966 -0.6966,0.6966 -0.38471,0 -0.69659,-0.31188 -0.69659,-0.6966 0,-0.38471 0.31188,-0.69659 0.69659,-0.69659 0.38472,0 0.6966,0.31188 0.6966,0.69659 z"
         sodipodi:ry="0.69659221"
         sodipodi:rx="0.69659221"
         sodipodi:cy="273.07455"
         sodipodi:cx="196.73753"
         id="path3419"
         style="fill:none;stroke:#ff8a00;stroke-width:0.17904499;stroke-miterlimit:0;stroke-opacity:1;stroke-dasharray:none;stroke-dashoffset:0"
         sodipodi:type="arc" />
      <path
         sodipodi:type="arc"
         style="fill:none;stroke:#ff6300;stroke-width:0.17904499;stroke-miterlimit:0;stroke-opacity:1;stroke-dasharray:none;stroke-dashoffset:0"
         id="path3421"
         sodipodi:cx="196.73753"
         sodipodi:cy="273.07455"
         sodipodi:rx="0.69659221"
         sodipodi:ry="0.69659221"
         d="m 197.43413,273.07455 c 0,0.38472 -0.31188,0.6966 -0.6966,0.6966 -0.38471,0 -0.69659,-0.31188 -0.69659,-0.6966 0,-0.38471 0.31188,-0.69659 0.69659,-0.69659 0.38472,0 0.6966,0.31188 0.6966,0.69659 z"
         transform="matrix(0.83777825,0,0,0.83777825,35.880112,42.103822)" />
      <path
         transform="matrix(0.83777825,0,0,0.83777825,36.583776,43.546334)"
         d="m 197.43413,273.07455 c 0,0.38472 -0.31188,0.6966 -0.6966,0.6966 -0.38471,0 -0.69659,-0.31188 -0.69659,-0.6966 0,-0.38471 0.31188,-0.69659 0.69659,-0.69659 0.38472,0 0.6966,0.31188 0.6966,0.69659 z"
         sodipodi:ry="0.69659221"
         sodipodi:rx="0.69659221"
         sodipodi:cy="273.07455"
         sodipodi:cx="196.73753"
         id="path3423"
         style="fill:none;stroke:#ff5900;stroke-width:0.2849521;stroke-miterlimit:0;stroke-opacity:1;stroke-dasharray:none;stroke-dashoffset:0"
         sodipodi:type="arc" />
      <path
         sodipodi:type="arc"
         style="fill:none;stroke:#ff8c00;stroke-width:0.14920416;stroke-miterlimit:0;stroke-opacity:1;stroke-dasharray:none;stroke-dashoffset:0"
         id="path3425"
         sodipodi:cx="196.73753"
         sodipodi:cy="273.07455"
         sodipodi:rx="0.69659221"
         sodipodi:ry="0.69659221"
         d="m 197.43413,273.07455 c 0,0.38472 -0.31188,0.6966 -0.6966,0.6966 -0.38471,0 -0.69659,-0.31188 -0.69659,-0.6966 0,-0.38471 0.31188,-0.69659 0.69659,-0.69659 0.38472,0 0.6966,0.31188 0.6966,0.69659 z"
         transform="matrix(1.0068728,0,0,1.0068728,2.0561023,-6.0356937)" />
      <path
         sodipodi:type="arc"
         style="fill:none;stroke:#ff8000;stroke-width:0.1;stroke-miterlimit:0;stroke-opacity:1;stroke-dasharray:none;stroke-dashoffset:0"
         id="path3427"
         sodipodi:cx="196.73753"
         sodipodi:cy="273.07455"
         sodipodi:rx="0.69659221"
         sodipodi:ry="0.69659221"
         d="m 197.43413,273.07455 c 0,0.38472 -0.31188,0.6966 -0.6966,0.6966 -0.38471,0 -0.69659,-0.31188 -0.69659,-0.6966 0,-0.38471 0.31188,-0.69659 0.69659,-0.69659 0.38472,0 0.6966,0.31188 0.6966,0.69659 z"
         transform="matrix(0.83777825,0,0,0.83777825,38.469239,39.680427)" />
      <path
         transform="matrix(0.8963638,0,0,0.8963638,25.338281,23.140925)"
         d="m 197.43413,273.07455 c 0,0.38472 -0.31188,0.6966 -0.6966,0.6966 -0.38471,0 -0.69659,-0.31188 -0.69659,-0.6966 0,-0.38471 0.31188,-0.69659 0.69659,-0.69659 0.38472,0 0.6966,0.31188 0.6966,0.69659 z"
         sodipodi:ry="0.69659221"
         sodipodi:rx="0.69659221"
         sodipodi:cy="273.07455"
         sodipodi:cx="196.73753"
         id="path3429"
         style="fill:none;stroke:#ff8000;stroke-width:0.1;stroke-miterlimit:0;stroke-opacity:1;stroke-dasharray:none;stroke-dashoffset:0"
         sodipodi:type="arc" />
      <path
         sodipodi:type="arc"
         style="fill:none;stroke:#ffbf00;stroke-width:0.1;stroke-miterlimit:0;stroke-opacity:1;stroke-dasharray:none;stroke-dashoffset:0"
         id="path3431"
         sodipodi:cx="196.73753"
         sodipodi:cy="273.07455"
         sodipodi:rx="0.69659221"
         sodipodi:ry="0.69659221"
         d="m 197.43413,273.07455 c 0,0.38472 -0.31188,0.6966 -0.6966,0.6966 -0.38471,0 -0.69659,-0.31188 -0.69659,-0.6966 0,-0.38471 0.31188,-0.69659 0.69659,-0.69659 0.38472,0 0.6966,0.31188 0.6966,0.69659 z"
         transform="matrix(0.83777825,0,0,0.83777825,40.712664,37.331453)" />
      <path
         transform="matrix(0.6096696,0,0,0.6096696,87.007904,99.750596)"
         d="m 197.43413,273.07455 c 0,0.38472 -0.31188,0.6966 -0.6966,0.6966 -0.38471,0 -0.69659,-0.31188 -0.69659,-0.6966 0,-0.38471 0.31188,-0.69659 0.69659,-0.69659 0.38472,0 0.6966,0.31188 0.6966,0.69659 z"
         sodipodi:ry="0.69659221"
         sodipodi:rx="0.69659221"
         sodipodi:cy="273.07455"
         sodipodi:cx="196.73753"
         id="path3433"
         style="fill:none;stroke:#ffd600;stroke-width:0.1;stroke-miterlimit:0;stroke-opacity:1;stroke-dasharray:none;stroke-dashoffset:0"
         sodipodi:type="arc" />
      <path
         sodipodi:type="arc"
         style="fill:none;stroke:#ffde00;stroke-width:0.1;stroke-miterlimit:0;stroke-opacity:1;stroke-dasharray:none;stroke-dashoffset:0"
         id="path3435"
         sodipodi:cx="196.73753"
         sodipodi:cy="273.07455"
         sodipodi:rx="0.69659221"
         sodipodi:ry="0.69659221"
         d="m 197.43413,273.07455 c 0,0.38472 -0.31188,0.6966 -0.6966,0.6966 -0.38471,0 -0.69659,-0.31188 -0.69659,-0.6966 0,-0.38471 0.31188,-0.69659 0.69659,-0.69659 0.38472,0 0.6966,0.31188 0.6966,0.69659 z"
         transform="matrix(0.45557096,0,0,0.45557096,118.28619,142.59387)" />
      <path
         transform="matrix(1.0839353,0,0,1.0839353,-11.369586,-26.329233)"
         d="m 197.43413,273.07455 c 0,0.38472 -0.31188,0.6966 -0.6966,0.6966 -0.38471,0 -0.69659,-0.31188 -0.69659,-0.6966 0,-0.38471 0.31188,-0.69659 0.69659,-0.69659 0.38472,0 0.6966,0.31188 0.6966,0.69659 z"
         sodipodi:ry="0.69659221"
         sodipodi:rx="0.69659221"
         sodipodi:cy="273.07455"
         sodipodi:cx="196.73753"
         id="path3437"
         style="fill:none;stroke:#ff6300;stroke-width:0.17904499;stroke-miterlimit:0;stroke-opacity:1;stroke-dasharray:none;stroke-dashoffset:0"
         sodipodi:type="arc" />
      <path
         sodipodi:type="arc"
         style="fill:none;stroke:#ff6300;stroke-width:0.17904499;stroke-miterlimit:0;stroke-opacity:1;stroke-dasharray:none;stroke-dashoffset:0"
         id="path3439"
         sodipodi:cx="196.73753"
         sodipodi:cy="273.07455"
         sodipodi:rx="0.69659221"
         sodipodi:ry="0.69659221"
         d="m 197.43413,273.07455 c 0,0.38472 -0.31188,0.6966 -0.6966,0.6966 -0.38471,0 -0.69659,-0.31188 -0.69659,-0.6966 0,-0.38471 0.31188,-0.69659 0.69659,-0.69659 0.38472,0 0.6966,0.31188 0.6966,0.69659 z"
         transform="matrix(1.0168016,0,0,1.0168016,3.7079918,-10.727468)" />
    </g>
  </g>
</svg>
